<?xml version="1.0" encoding="UTF-8" standalone="no"?>
<!-- Created with Inkscape (http://www.inkscape.org/) -->

<svg
   xmlns:dc="http://purl.org/dc/elements/1.1/"
   xmlns:cc="http://creativecommons.org/ns#"
   xmlns:rdf="http://www.w3.org/1999/02/22-rdf-syntax-ns#"
   xmlns:svg="http://www.w3.org/2000/svg"
   xmlns="http://www.w3.org/2000/svg"
   xmlns:sodipodi="http://sodipodi.sourceforge.net/DTD/sodipodi-0.dtd"
   xmlns:inkscape="http://www.inkscape.org/namespaces/inkscape"
   width="94.609001mm"
   height="12.675mm"
   viewBox="0 0 94.609 12.675"
   version="1.1"
   id="svg1413"
   inkscape:version="0.92.3 (2405546, 2018-03-11)"
   sodipodi:docname="sep_031.svg">
  <defs
     id="defs1407" />
  <sodipodi:namedview
     id="base"
     pagecolor="#ffffff"
     bordercolor="#666666"
     borderopacity="1.0"
     inkscape:pageopacity="0.0"
     inkscape:pageshadow="2"
     inkscape:zoom="1.979899"
     inkscape:cx="141.64777"
     inkscape:cy="-0.53151426"
     inkscape:document-units="mm"
     inkscape:current-layer="layer1"
     showgrid="false"
     inkscape:window-width="1366"
     inkscape:window-height="705"
     inkscape:window-x="-8"
     inkscape:window-y="-8"
     inkscape:window-maximized="1" />
  <metadata
     id="metadata1410">
    <rdf:RDF>
      <cc:Work
         rdf:about="">
        <dc:format>image/svg+xml</dc:format>
        <dc:type
           rdf:resource="http://purl.org/dc/dcmitype/StillImage" />
        <dc:title></dc:title>
      </cc:Work>
    </rdf:RDF>
  </metadata>
  <g
     inkscape:label="Layer 1"
     inkscape:groupmode="layer"
     id="layer1"
     transform="translate(0,-284.325)">
    <g
       transform="matrix(0.35277777,0,0,-0.35277777,-75.562557,396.71019)"
       id="g1881">
      <g
         transform="translate(311.9424,292.0015)"
         id="g58">
        <path
           inkscape:connector-curvature="0"
           id="path60"
           style="fill:#1d262d;fill-opacity:1;fill-rule:nonzero;stroke:none"
           d="M 0,0 C 1.926,2.648 3.334,5.511 3.69,8.812 1.196,6.4 0.35,3.303 0,0 m -10.099,8.594 c -2.688,-1.823 -5.16,-6.463 -5.155,-9.742 2.264,3.08 3.938,6.164 5.155,9.742 m -8.295,11.115 c 1.452,-3.154 3.808,-5.286 7.066,-6.401 -1.535,3.029 -3.963,5.086 -7.066,6.401 m 14.456,0.357 c 0.827,-3.818 3.642,-5.542 7.042,-6.651 -1.846,2.744 -4.165,4.991 -7.042,6.651 m -18.681,-7.848 c -2.313,3.322 -5.293,5.731 -8.547,8.104 0.332,-3.99 5.09,-7.551 8.547,-8.104 M -38.377,8.344 c -3.074,-1.829 -6.871,-8.137 -7.217,-11.982 3.75,3.427 5.912,7.434 7.217,11.982 m -16.787,-0.14 c -4.768,-1.74 -7.763,-5.409 -10.325,-9.546 4.264,2.27 7.939,5.19 10.325,9.546 m 7.049,12.634 c 1.844,-4.818 7.145,-9.381 10.271,-8.932 -2.602,3.802 -6.101,6.422 -10.271,8.932 m 17.61,-22.425 c 4.176,2.423 6.125,6.413 7.524,10.78 -4.23,-2.368 -6.271,-6.278 -7.524,-10.78 m -60.188,8.258 c 5.564,-0.618 13.948,0.137 16.239,1.846 -5.755,2.107 -11.013,0.266 -16.239,-1.846 m 36.177,4.454 c -3.065,4.505 -7.686,7.04 -12.253,9.645 3.03,-4.552 6.408,-8.662 12.253,-9.645 m 28.072,-1.577 c -2.091,0.006 -4.052,0.013 -6.014,0.015 -0.386,10e-4 -0.771,-0.011 -1.156,-0.021 -2.329,-0.06 -2.289,-0.075 -3.083,-2.307 -1.706,-4.789 -4.117,-9.13 -8.12,-12.422 -0.298,-0.244 -0.583,-0.521 -0.92,-0.696 -0.984,-0.512 -2.035,0.047 -2.09,1.151 -0.028,0.564 0.11,1.151 0.258,1.706 1.151,4.338 2.909,8.366 6.058,11.67 0.121,0.127 0.191,0.304 0.37,0.6 -0.815,0.243 -1.573,0.144 -2.304,0.121 -2.635,-0.085 -5.268,-0.207 -7.901,-0.319 -0.565,-0.023 -1.135,0.055 -1.407,-0.688 -1.148,-3.141 -3.562,-5.315 -5.955,-7.449 -2.308,-2.058 -4.935,-3.693 -7.74,-5.018 -0.348,-0.165 -0.707,-0.304 -1.061,-0.457 -0.566,-0.245 -0.996,0.003 -1.375,0.393 -0.436,0.448 -0.346,0.92 -0.045,1.401 2.422,3.86 4.615,7.899 8.429,10.657 0.199,0.144 0.431,0.271 0.449,0.676 -0.673,0.002 -1.346,-0.008 -2.019,0.007 -4.744,0.105 -9.24,-1.006 -13.713,-2.507 -4.122,-1.383 -8.466,-1.448 -12.784,-1.374 -1.284,0.023 -2.566,0.153 -3.85,0.229 -0.584,0.034 -1.151,0.154 -1.673,0.415 -0.414,0.206 -0.764,0.531 -0.819,1.004 -0.065,0.561 0.398,0.75 0.822,0.918 3.943,1.563 7.899,3.125 12.136,3.677 2.659,0.346 5.244,-0.276 7.76,-1.116 0.612,-0.205 1.186,-0.427 1.858,-0.364 4.282,0.404 8.567,0.785 12.836,1.172 0.054,0.265 -0.066,0.404 -0.239,0.496 -4.542,2.42 -7.492,6.364 -10.144,10.593 -0.102,0.163 -0.201,0.331 -0.274,0.509 -0.437,1.053 10e-4,1.656 1.105,1.489 0.308,-0.046 0.612,-0.185 0.894,-0.33 3.946,-2.036 7.783,-4.252 11.266,-7.026 1.664,-1.325 3.283,-2.719 4.184,-4.714 0.273,-0.607 0.69,-0.673 1.228,-0.646 2.814,0.143 5.626,0.285 8.432,0.426 0.145,0.487 -0.225,0.579 -0.479,0.729 -2.741,1.618 -4.733,3.915 -6.15,6.742 -0.49,0.976 -1.007,1.939 -1.506,2.91 -0.211,0.41 -0.415,0.898 -0.114,1.275 0.344,0.431 0.907,0.433 1.43,0.289 0.246,-0.068 0.493,-0.154 0.717,-0.275 3.226,-1.746 6.382,-3.602 9.097,-6.11 1.329,-1.229 2.512,-2.592 3.364,-4.193 0.444,-0.833 0.975,-1.189 1.958,-1.161 2.489,0.069 4.98,0.011 7.457,0.005 0.112,0.895 -0.501,0.916 -0.824,1.105 -3.417,2.002 -5.028,5.214 -5.975,8.863 -0.302,1.161 0.331,1.74 1.463,1.384 0.419,-0.131 0.816,-0.378 1.183,-0.631 3.928,-2.706 7.805,-5.474 10.256,-9.731 0.34,-0.592 0.787,-0.754 1.417,-0.75 2.052,0.015 4.104,-0.003 6.355,-0.01 -0.331,0.849 -0.934,0.97 -1.394,1.203 -3.224,1.641 -5.12,4.407 -6.477,7.619 -0.444,1.052 0.008,1.584 1.147,1.466 0.19,-0.019 0.387,-0.055 0.561,-0.128 4.234,-1.779 8.091,-4.046 10.077,-8.457 0.566,-1.257 1.288,-1.677 2.63,-1.626 2.562,0.097 5.13,0.016 7.951,0.008 -0.587,0.822 -1.331,0.898 -1.914,1.193 -2.861,1.448 -4.741,3.675 -5.522,6.802 -0.17,0.681 -0.493,1.416 0.123,1.992 0.741,0.693 1.578,0.342 2.339,-0.027 2.225,-1.079 4.113,-2.623 5.837,-4.37 1.268,-1.285 2.464,-2.669 3.241,-4.292 0.52,-1.083 1.217,-1.259 2.269,-1.256 6.042,0.018 12.086,-0.01 18.129,-0.043 1.155,-0.006 2.311,-0.087 3.465,-0.158 0.382,-0.024 0.763,-0.109 1.136,-0.2 0.52,-0.126 0.735,-0.542 0.727,-1.011 C 30.919,9.981 30.398,9.927 29.957,9.86 28.748,9.676 27.534,9.572 26.309,9.581 20.137,9.625 13.966,9.654 7.794,9.688 7.408,9.69 7.021,9.67 6.637,9.701 5.944,9.756 5.57,9.533 5.526,8.765 5.278,4.472 3.012,1.01 0.842,-2.488 0.707,-2.706 0.565,-2.921 0.412,-3.126 0.027,-3.642 -0.354,-4.291 -1.113,-4.044 c -0.848,0.275 -1.083,0.996 -1.02,1.858 0.29,3.941 0.852,7.802 3.148,11.178 C 1.114,9.137 1.302,9.279 1.034,9.677 -1.642,9.684 -4.442,9.689 -7.244,9.702 -7.772,9.704 -8.052,9.434 -8.222,8.953 -8.563,7.984 -8.923,7.021 -9.298,6.064 c -1.158,-2.949 -2.7,-5.682 -4.683,-8.156 -0.36,-0.449 -0.772,-0.861 -1.198,-1.249 -0.391,-0.357 -0.859,-0.603 -1.402,-0.33 -0.565,0.284 -0.861,0.757 -0.84,1.401 0.008,0.256 0.024,0.516 0.069,0.767 0.67,3.703 1.677,7.266 4.221,10.196 0.193,0.222 0.488,0.427 0.363,0.974 -2.509,0.007 -5.052,0.014 -7.596,0.021 -0.792,10e-4 -0.849,-0.616 -1.017,-1.172 -0.617,-2.037 -1.431,-3.991 -2.544,-5.809 -1.388,-2.269 -3.034,-4.305 -5.336,-5.724 -0.435,-0.268 -0.879,-0.549 -1.355,-0.724 -1.317,-0.484 -2.274,0.241 -1.936,1.596 0.906,3.636 2.148,7.136 4.735,9.994 0.448,0.495 1.111,0.843 1.373,1.699" />
      </g>
      <g
         transform="translate(380.9512,300.6357)"
         id="g62">
        <path
           inkscape:connector-curvature="0"
           id="path64"
           style="fill:#1d262d;fill-opacity:1;fill-rule:nonzero;stroke:none"
           d="M 0,0 C 0.339,-3.303 1.731,-6.173 3.643,-8.832 3.311,-5.527 2.481,-2.425 0,0 m 18.889,-10.063 c 0.023,3.279 -2.423,7.933 -5.102,9.77 1.198,-3.584 2.856,-6.677 5.102,-9.77 M 15.042,4.414 c 3.265,1.098 5.632,3.217 7.101,6.363 C 19.033,9.479 16.594,7.436 15.042,4.414 M 0.61,4.6 C 4.017,5.69 6.842,7.399 7.688,11.212 4.803,9.568 2.473,7.333 0.61,4.6 m 34.308,6.721 c -3.267,-2.356 -6.26,-4.748 -8.591,-8.058 3.46,0.535 8.237,4.069 8.591,8.058 m 14.298,-24.038 c -0.325,3.846 -4.088,10.175 -7.153,12.021 1.281,-4.555 3.421,-8.574 7.153,-12.021 m 19.907,2.187 c -2.54,4.152 -5.515,7.837 -10.273,9.602 2.362,-4.368 6.021,-7.308 10.273,-9.602 M 41.551,2.869 C 44.674,2.403 49.999,6.937 51.869,11.745 47.687,9.257 44.173,6.656 41.551,2.869 M 26.673,0.237 c 1.375,-4.376 3.303,-8.375 7.465,-10.821 -1.229,4.508 -3.248,8.429 -7.465,10.821 m 51.468,-0.956 c 2.282,-1.721 10.662,-2.523 16.229,-1.934 -5.215,2.14 -10.462,4.008 -16.229,1.934 m -7.619,12.294 c -4.58,-2.58 -9.214,-5.09 -12.305,-9.578 5.851,0.951 9.252,5.043 12.305,9.578 M 31.502,-1.134 c 2.571,-2.872 3.793,-6.379 4.68,-10.019 0.33,-1.358 -0.631,-2.077 -1.945,-1.586 -0.475,0.177 -0.917,0.461 -1.351,0.732 -2.293,1.43 -3.929,3.476 -5.305,5.752 -1.102,1.824 -1.906,3.783 -2.512,5.823 -0.165,0.557 -0.218,1.175 -1.01,1.177 -2.543,0.007 -5.087,0.014 -7.597,0.021 -0.128,-0.546 0.167,-0.753 0.358,-0.975 2.528,-2.945 3.516,-6.513 4.165,-10.22 0.044,-0.252 0.059,-0.511 0.066,-0.767 0.017,-0.644 -0.282,-1.116 -0.848,-1.397 -0.544,-0.27 -1.012,-0.021 -1.401,0.338 -0.423,0.39 -0.833,0.805 -1.191,1.255 -1.969,2.485 -3.496,5.227 -4.637,8.183 -0.371,0.958 -0.726,1.922 -1.062,2.894 C 11.745,0.559 11.467,0.83 10.938,0.83 8.138,0.833 5.337,0.843 2.66,0.851 2.391,0.454 2.578,0.311 2.676,0.166 c 2.277,-3.389 2.818,-7.252 3.087,-11.195 0.059,-0.863 -0.18,-1.582 -1.03,-1.853 -0.76,-0.243 -1.138,0.409 -1.519,0.926 -0.153,0.206 -0.293,0.422 -0.428,0.642 -2.15,3.509 -4.397,6.983 -4.623,11.277 -0.04,0.769 -0.412,0.993 -1.105,0.942 -0.384,-0.028 -0.771,-0.006 -1.157,-0.006 -6.172,-0.001 -12.343,0.003 -18.515,-0.007 -1.226,-0.002 -2.439,0.109 -3.647,0.299 -0.441,0.069 -0.962,0.126 -0.968,0.72 -0.004,0.469 0.212,0.884 0.732,1.007 0.374,0.089 0.755,0.172 1.137,0.194 1.155,0.065 2.311,0.139 3.467,0.139 6.043,0 12.086,-0.004 18.129,-0.055 1.052,-0.009 1.75,0.163 2.275,1.243 0.786,1.619 1.989,2.997 3.264,4.274 1.733,1.738 3.63,3.272 5.862,4.339 0.761,0.365 1.6,0.712 2.339,0.014 0.612,-0.579 0.285,-1.313 0.111,-1.992 C 9.289,7.951 7.396,5.735 4.529,4.302 3.944,4.01 3.2,3.938 2.608,3.12 5.429,3.112 7.997,3.179 10.559,3.068 c 1.342,-0.058 2.066,0.358 2.638,1.612 2.01,4.4 5.88,6.646 10.123,8.401 0.175,0.073 0.372,0.107 0.562,0.126 1.14,0.111 1.589,-0.423 1.139,-1.473 C 23.646,8.53 21.735,5.774 18.503,4.151 18.042,3.92 17.437,3.803 17.103,2.956 c 2.251,-0.006 4.303,10e-4 6.355,-0.025 0.63,-0.008 1.077,0.152 1.421,0.742 2.474,4.244 6.365,6.991 10.309,9.675 0.368,0.251 0.765,0.496 1.186,0.625 1.134,0.35 1.764,-0.232 1.455,-1.392 C 36.862,8.938 35.233,5.734 31.806,3.75 31.482,3.563 30.869,3.545 30.976,2.649 c 2.476,-0.006 4.968,0.039 7.457,-0.045 0.983,-0.033 1.515,0.32 1.963,1.151 0.862,1.597 2.052,2.953 3.388,4.174 2.728,2.494 5.894,4.332 9.131,6.061 0.224,0.12 0.471,0.205 0.717,0.271 0.524,0.142 1.088,0.136 1.429,-0.297 0.298,-0.378 0.091,-0.865 -0.122,-1.274 C 54.436,11.721 53.913,10.761 53.418,9.788 51.985,6.969 49.98,4.683 47.231,3.079 46.977,2.931 46.606,2.841 46.748,2.354 c 2.805,-0.157 5.617,-0.314 8.43,-0.473 0.538,-0.03 0.955,0.034 1.232,0.64 0.911,1.989 2.537,3.375 4.208,4.691 3.499,2.755 7.348,4.951 11.305,6.964 0.282,0.144 0.588,0.281 0.896,0.326 1.105,0.162 1.539,-0.444 1.097,-1.496 C 73.842,12.83 73.742,12.662 73.64,12.499 70.964,8.285 67.993,4.356 63.438,1.962 63.264,1.871 63.144,1.732 63.196,1.467 c 4.267,-0.41 8.549,-0.814 12.829,-1.242 0.672,-0.067 1.246,0.153 1.861,0.354 2.52,0.827 5.108,1.435 7.765,1.074 4.234,-0.575 8.181,-2.158 12.117,-3.743 0.422,-0.17 0.884,-0.362 0.816,-0.922 -0.058,-0.473 -0.409,-0.796 -0.824,-1.001 -0.524,-0.258 -1.091,-0.374 -1.676,-0.405 -1.283,-0.069 -2.566,-0.192 -3.851,-0.207 -4.318,-0.052 -8.662,0.037 -12.777,1.442 -4.465,1.526 -8.954,2.661 -13.698,2.582 -0.673,-0.011 -1.346,0.002 -2.02,0.004 0.017,-0.405 0.247,-0.534 0.446,-0.679 3.799,-2.778 5.97,-6.829 8.371,-10.702 0.299,-0.483 0.386,-0.955 -0.052,-1.401 -0.382,-0.388 -0.814,-0.633 -1.378,-0.385 -0.353,0.154 -0.711,0.296 -1.058,0.462 -2.798,1.34 -5.417,2.989 -7.713,5.06 -2.38,2.147 -4.783,4.334 -5.915,7.482 -0.267,0.744 -0.837,0.669 -1.403,0.696 -2.633,0.125 -5.265,0.262 -7.898,0.361 -0.732,0.027 -1.489,0.13 -2.306,-0.109 0.179,-0.296 0.247,-0.474 0.367,-0.601 3.132,-3.321 4.867,-7.359 5.995,-11.704 0.144,-0.555 0.281,-1.143 0.249,-1.706 -0.061,-1.105 -1.115,-1.657 -2.096,-1.14 -0.335,0.176 -0.62,0.455 -0.916,0.701 -3.986,3.314 -6.373,7.668 -8.052,12.466 -0.783,2.236 -0.742,2.251 -3.071,2.323 -0.385,0.012 -0.771,0.027 -1.157,0.028 -1.961,0.008 -3.922,0.012 -6.013,0.018 0.258,-0.858 0.918,-1.21 1.364,-1.707" />
      </g>
    </g>
  </g>
</svg>
