<?xml version="1.0" encoding="UTF-8" standalone="no"?>
<!-- Created with Inkscape (http://www.inkscape.org/) -->

<svg
   xmlns:dc="http://purl.org/dc/elements/1.1/"
   xmlns:cc="http://creativecommons.org/ns#"
   xmlns:rdf="http://www.w3.org/1999/02/22-rdf-syntax-ns#"
   xmlns:svg="http://www.w3.org/2000/svg"
   xmlns="http://www.w3.org/2000/svg"
   xmlns:sodipodi="http://sodipodi.sourceforge.net/DTD/sodipodi-0.dtd"
   xmlns:inkscape="http://www.inkscape.org/namespaces/inkscape"
   width="60.296001mm"
   height="10.224mm"
   viewBox="0 0 60.296002 10.224"
   version="1.1"
   id="svg1413"
   inkscape:version="0.92.3 (2405546, 2018-03-11)"
   sodipodi:docname="sep_003.svg">
  <defs
     id="defs1407" />
  <sodipodi:namedview
     id="base"
     pagecolor="#ffffff"
     bordercolor="#666666"
     borderopacity="1.0"
     inkscape:pageopacity="0.0"
     inkscape:pageshadow="2"
     inkscape:zoom="1.979899"
     inkscape:cx="141.64777"
     inkscape:cy="-0.53151426"
     inkscape:document-units="mm"
     inkscape:current-layer="layer1"
     showgrid="false"
     inkscape:window-width="1366"
     inkscape:window-height="705"
     inkscape:window-x="-8"
     inkscape:window-y="-8"
     inkscape:window-maximized="1" />
  <metadata
     id="metadata1410">
    <rdf:RDF>
      <cc:Work
         rdf:about="">
        <dc:format>image/svg+xml</dc:format>
        <dc:type
           rdf:resource="http://purl.org/dc/dcmitype/StillImage" />
        <dc:title></dc:title>
      </cc:Work>
    </rdf:RDF>
  </metadata>
  <g
     inkscape:label="Layer 1"
     inkscape:groupmode="layer"
     id="layer1"
     transform="translate(0,-286.776)">
    <g
       id="g32"
       transform="matrix(0.35277777,0,0,-0.35277777,56.937827,294.38756)">
      <path
         d="M 0,0 C -3.298,4.984 -6.574,10.008 -10.221,14.74 -6.226,14.707 -2.23,14.673 1.765,14.655 1.979,14.654 2.138,14.73 2.267,14.834 3.079,14.761 3.901,14.714 4.709,14.707 2.939,9.868 1.358,4.969 0,0 m -16.53,5.396 c -0.532,-1.388 -1.001,-2.863 -1.613,-4.218 -1.3,-2.874 -1.538,-0.108 -2.462,1.499 -2.478,4.309 -5.346,8.577 -8.748,12.256 5.482,-0.066 10.965,-0.124 16.447,-0.173 -1.229,-3.113 -2.426,-6.239 -3.624,-9.364 m -23.128,-4.86 c -3.104,4.815 -6.038,9.717 -8.958,14.645 5.186,-0.076 10.373,-0.138 15.559,-0.203 -2.279,-4.776 -4.434,-9.614 -6.601,-14.442 M -61.03,0.705 c -2.574,4.975 -5.161,9.964 -8.009,14.787 5.646,-0.09 11.291,-0.179 16.937,-0.264 -2.671,-5.041 -5.623,-9.876 -8.928,-14.523 m -16.071,6.197 c -0.558,-1.308 -2.062,-7.163 -3.102,-7.321 -1.013,-0.154 -4.533,6.577 -5.284,7.746 -1.836,2.853 -3.676,5.721 -5.668,8.469 4.365,-0.043 8.729,-0.09 13.087,-0.161 1.734,-0.028 3.467,-0.054 5.201,-0.082 -1.54,-2.822 -2.97,-5.693 -4.234,-8.651 m -21.574,0.442 c -1.108,-2.181 -2.212,-4.365 -3.315,-6.549 -0.552,-1.093 -1.104,-2.185 -1.655,-3.277 -0.46,0.6 -0.863,1.235 -1.209,1.905 -2.212,3.698 -4.135,7.608 -6.024,11.477 -0.786,1.609 -1.391,3.527 -2.366,5.104 6.551,-0.07 13.101,-0.122 19.646,-0.182 -2.216,-2.494 -3.569,-5.51 -5.077,-8.478 m -22.396,2.955 c -1.808,-3.557 -4.013,-6.85 -6.069,-10.259 -0.387,-0.559 -0.725,-1.147 -1.013,-1.764 l -1.373,3.136 c -0.803,1.828 -1.611,3.653 -2.423,5.476 -1.422,3.194 -2.875,6.372 -4.382,9.526 6.1,-0.166 12.204,-0.275 18.31,-0.353 -1.337,-1.7 -2.052,-3.798 -3.05,-5.762 M -149.156,0.035 c -2.48,5.767 -4.883,11.608 -7.727,17.202 5.505,-0.305 11.018,-0.529 16.536,-0.703 -2.946,-5.494 -5.878,-10.996 -8.809,-16.499 M 6.521,15.386 c 0.073,0.438 -0.172,0.931 -0.758,0.954 -1.162,0.047 -2.394,-0.012 -3.591,-0.123 -0.114,0.066 -0.244,0.114 -0.407,0.116 -10.969,0.155 -21.939,0.286 -32.909,0.414 -0.151,0.096 -0.329,0.085 -0.475,0.006 -6.028,0.07 -12.056,0.14 -18.084,0.212 -0.209,0.219 -0.499,0.182 -0.691,0.008 -9.225,0.111 -18.45,0.226 -27.674,0.364 -12.418,0.185 -24.854,0.559 -37.291,0.877 -0.082,0.051 -0.15,0.117 -0.236,0.164 -0.259,0.143 -0.483,0.039 -0.593,-0.143 -7.09,0.179 -14.179,0.343 -21.266,0.429 -0.149,0.109 -0.356,0.096 -0.52,0.008 -6.644,0.077 -13.285,0.091 -19.92,0.002 -0.899,-0.013 -0.887,-1.337 0,-1.388 0.012,-0.001 0.025,-0.001 0.038,-0.002 2.305,-6.586 5.241,-12.984 7.963,-19.405 0.229,-0.54 1.076,-0.464 1.329,0 3.369,6.193 6.738,12.386 10.088,18.59 0.313,-0.01 0.626,-0.016 0.938,-0.024 1.563,-4.004 3.234,-7.964 4.915,-11.92 0.966,-2.27 1.763,-7.154 4.265,-8.088 0.28,-0.105 0.599,0.026 0.806,0.213 2.363,2.134 4.059,5.876 5.663,8.61 1.97,3.356 3.242,8.129 6.152,10.77 0.359,-0.005 0.717,-0.007 1.076,-0.011 0.969,-1.524 1.451,-3.442 2.157,-5.072 1.032,-2.384 2.132,-4.739 3.296,-7.062 0.801,-1.6 3.073,-8.22 5.089,-8.444 2.374,-0.263 3.375,3.823 4.107,5.258 2.387,4.682 4.386,10.383 8.035,14.248 0.026,0.026 0.039,0.054 0.06,0.082 1.805,-3.354 3.814,-6.606 5.805,-9.851 1.587,-2.587 3.138,-6.45 5.468,-8.406 0.309,-0.26 0.69,-0.332 1.055,-0.136 1.729,0.925 2.071,4.503 2.675,6.098 1.667,4.404 3.698,8.634 5.981,12.749 0.007,0.013 0.006,0.025 0.012,0.039 0.237,-0.004 0.473,-0.008 0.709,-0.012 2.521,-5.775 5.423,-11.399 8.279,-17.012 0.339,-0.668 1.195,-0.505 1.57,0 3.914,5.269 7.38,10.822 10.304,16.702 0.021,0 0.042,-10e-4 0.062,-10e-4 2.787,-5.932 6.107,-11.648 9.658,-17.147 0.355,-0.55 1.335,-0.693 1.653,0 2.564,5.59 5.179,11.166 7.602,16.819 0.012,0.027 0.008,0.054 0.018,0.081 0.039,0 0.078,-10e-4 0.118,-10e-4 2.405,-3.359 4.87,-6.651 7.014,-10.198 1.079,-1.785 2.006,-3.653 3.055,-5.452 0.37,-0.634 0.679,-1.548 1.492,-1.786 1.915,-0.56 2.608,1.888 3.095,3.153 1.757,4.567 3.501,9.142 5.194,13.733 3.415,-5.755 7.032,-11.377 10.665,-16.997 0.412,-0.638 1.43,-0.555 1.642,0.214 1.582,5.745 3.358,11.416 5.417,17.009 0.116,0.313 0.048,0.568 -0.105,0.759"
         style="fill:#1c1c1b;fill-opacity:1;fill-rule:nonzero;stroke:none"
         id="path34"
         inkscape:connector-curvature="0" />
    </g>
  </g>
</svg>
