<?xml version="1.0" encoding="UTF-8" standalone="no"?>
<!-- Created with Inkscape (http://www.inkscape.org/) -->

<svg
   xmlns:dc="http://purl.org/dc/elements/1.1/"
   xmlns:cc="http://creativecommons.org/ns#"
   xmlns:rdf="http://www.w3.org/1999/02/22-rdf-syntax-ns#"
   xmlns:svg="http://www.w3.org/2000/svg"
   xmlns="http://www.w3.org/2000/svg"
   xmlns:sodipodi="http://sodipodi.sourceforge.net/DTD/sodipodi-0.dtd"
   xmlns:inkscape="http://www.inkscape.org/namespaces/inkscape"
   width="73.188004mm"
   height="5.3990002mm"
   viewBox="0 0 73.188004 5.3990002"
   version="1.1"
   id="svg1413"
   inkscape:version="0.92.3 (2405546, 2018-03-11)"
   sodipodi:docname="sep_007.svg">
  <defs
     id="defs1407" />
  <sodipodi:namedview
     id="base"
     pagecolor="#ffffff"
     bordercolor="#666666"
     borderopacity="1.0"
     inkscape:pageopacity="0.0"
     inkscape:pageshadow="2"
     inkscape:zoom="1.979899"
     inkscape:cx="141.64777"
     inkscape:cy="-0.53151426"
     inkscape:document-units="mm"
     inkscape:current-layer="layer1"
     showgrid="false"
     inkscape:window-width="1366"
     inkscape:window-height="705"
     inkscape:window-x="-8"
     inkscape:window-y="-8"
     inkscape:window-maximized="1" />
  <metadata
     id="metadata1410">
    <rdf:RDF>
      <cc:Work
         rdf:about="">
        <dc:format>image/svg+xml</dc:format>
        <dc:type
           rdf:resource="http://purl.org/dc/dcmitype/StillImage" />
        <dc:title></dc:title>
      </cc:Work>
    </rdf:RDF>
  </metadata>
  <g
     inkscape:label="Layer 1"
     inkscape:groupmode="layer"
     id="layer1"
     transform="translate(0,-291.601)">
    <g
       transform="matrix(0.35277777,0,0,-0.35277777,-7.841378,345.15097)"
       id="g12188">
      <g
         transform="translate(29.123,146.1139)"
         id="g208">
        <path
           inkscape:connector-curvature="0"
           id="path210"
           style="fill:#1c1c1b;fill-opacity:1;fill-rule:nonzero;stroke:none"
           d="M 0,0 C -1.172,0.717 -2.947,0.444 -3.559,-0.825 -4.212,-1.592 -4.2,-2.894 -3.681,-3.748 -2.806,-5.192 -0.906,-5.285 0.278,-4.161 1.511,-2.99 1.521,-0.931 0,0" />
      </g>
      <g
         transform="translate(36.8849,146.3759)"
         id="g212">
        <path
           inkscape:connector-curvature="0"
           id="path214"
           style="fill:#1c1c1b;fill-opacity:1;fill-rule:nonzero;stroke:none"
           d="m 0,0 c 1.224,-1.551 2.313,-3.157 3.254,-4.885 -1.947,10e-4 -3.895,0.004 -5.84,-0.04 C -1.641,-3.342 -0.827,-1.646 0,0 M 5.842,-5.397 C 4.42,-2.603 2.646,0.053 0.474,2.323 0.096,2.718 -0.714,2.672 -0.963,2.138 c -1.254,-2.704 -2.848,-5.454 -3.701,-8.312 -0.186,-0.624 0.638,-0.886 0.986,-0.427 0.165,-0.254 0.434,-0.443 0.834,-0.446 2.597,-0.019 5.198,0.059 7.795,0.097 0.814,0.011 1.245,0.859 0.891,1.553" />
      </g>
      <g
         transform="translate(50.0295,146.1139)"
         id="g216">
        <path
           inkscape:connector-curvature="0"
           id="path218"
           style="fill:#1c1c1b;fill-opacity:1;fill-rule:nonzero;stroke:none"
           d="M 0,0 C -1.172,0.717 -2.947,0.444 -3.559,-0.825 -4.212,-1.592 -4.2,-2.894 -3.681,-3.748 -2.806,-5.192 -0.906,-5.285 0.278,-4.161 1.511,-2.99 1.521,-0.931 0,0" />
      </g>
      <g
         transform="translate(57.7913,146.3759)"
         id="g220">
        <path
           inkscape:connector-curvature="0"
           id="path222"
           style="fill:#1c1c1b;fill-opacity:1;fill-rule:nonzero;stroke:none"
           d="m 0,0 c 1.224,-1.551 2.313,-3.157 3.254,-4.885 -1.947,10e-4 -3.895,0.004 -5.84,-0.04 C -1.641,-3.342 -0.827,-1.646 0,0 M 5.842,-5.397 C 4.42,-2.603 2.646,0.053 0.474,2.323 0.096,2.718 -0.714,2.672 -0.963,2.138 c -1.254,-2.704 -2.848,-5.454 -3.701,-8.312 -0.186,-0.624 0.638,-0.886 0.986,-0.427 0.165,-0.254 0.434,-0.443 0.834,-0.446 2.597,-0.019 5.198,0.059 7.795,0.097 0.814,0.011 1.245,0.859 0.891,1.553" />
      </g>
      <g
         transform="translate(69.9063,146.1139)"
         id="g224">
        <path
           inkscape:connector-curvature="0"
           id="path226"
           style="fill:#1c1c1b;fill-opacity:1;fill-rule:nonzero;stroke:none"
           d="M 0,0 C -1.172,0.717 -2.947,0.444 -3.559,-0.825 -4.212,-1.592 -4.2,-2.894 -3.681,-3.748 -2.806,-5.192 -0.906,-5.285 0.278,-4.161 1.511,-2.99 1.521,-0.931 0,0" />
      </g>
      <g
         transform="translate(77.6681,146.3759)"
         id="g228">
        <path
           inkscape:connector-curvature="0"
           id="path230"
           style="fill:#1c1c1b;fill-opacity:1;fill-rule:nonzero;stroke:none"
           d="m 0,0 c 1.224,-1.551 2.313,-3.157 3.254,-4.885 -1.947,10e-4 -3.895,0.004 -5.84,-0.04 C -1.641,-3.342 -0.827,-1.646 0,0 M 5.842,-5.397 C 4.42,-2.603 2.646,0.053 0.474,2.323 0.096,2.718 -0.714,2.672 -0.963,2.138 c -1.254,-2.704 -2.848,-5.454 -3.701,-8.312 -0.186,-0.624 0.638,-0.886 0.986,-0.427 0.165,-0.254 0.434,-0.443 0.834,-0.446 2.597,-0.019 5.198,0.059 7.795,0.097 0.814,0.011 1.245,0.859 0.891,1.553" />
      </g>
      <g
         transform="translate(90.8127,146.1139)"
         id="g232">
        <path
           inkscape:connector-curvature="0"
           id="path234"
           style="fill:#1c1c1b;fill-opacity:1;fill-rule:nonzero;stroke:none"
           d="M 0,0 C -1.172,0.717 -2.947,0.444 -3.559,-0.825 -4.212,-1.592 -4.2,-2.894 -3.681,-3.748 -2.806,-5.192 -0.906,-5.285 0.278,-4.161 1.511,-2.99 1.521,-0.931 0,0" />
      </g>
      <g
         transform="translate(98.5746,146.3759)"
         id="g236">
        <path
           inkscape:connector-curvature="0"
           id="path238"
           style="fill:#1c1c1b;fill-opacity:1;fill-rule:nonzero;stroke:none"
           d="m 0,0 c 1.224,-1.551 2.313,-3.157 3.254,-4.885 -1.947,10e-4 -3.895,0.004 -5.84,-0.04 C -1.641,-3.342 -0.827,-1.646 0,0 M 5.842,-5.397 C 4.42,-2.603 2.646,0.053 0.474,2.323 0.096,2.718 -0.714,2.672 -0.963,2.138 c -1.254,-2.704 -2.848,-5.454 -3.701,-8.312 -0.186,-0.624 0.638,-0.886 0.986,-0.427 0.165,-0.254 0.434,-0.443 0.834,-0.446 2.597,-0.019 5.198,0.059 7.795,0.097 0.814,0.011 1.245,0.859 0.891,1.553" />
      </g>
      <g
         transform="translate(110.7793,146.1139)"
         id="g240">
        <path
           inkscape:connector-curvature="0"
           id="path242"
           style="fill:#1c1c1b;fill-opacity:1;fill-rule:nonzero;stroke:none"
           d="M 0,0 C -1.172,0.717 -2.947,0.444 -3.559,-0.825 -4.212,-1.592 -4.2,-2.894 -3.681,-3.748 -2.806,-5.192 -0.906,-5.285 0.278,-4.161 1.511,-2.99 1.521,-0.931 0,0" />
      </g>
      <g
         transform="translate(118.5411,146.3759)"
         id="g244">
        <path
           inkscape:connector-curvature="0"
           id="path246"
           style="fill:#1c1c1b;fill-opacity:1;fill-rule:nonzero;stroke:none"
           d="m 0,0 c 1.224,-1.551 2.313,-3.157 3.254,-4.885 -1.947,10e-4 -3.895,0.004 -5.84,-0.04 C -1.641,-3.342 -0.827,-1.646 0,0 M 5.842,-5.397 C 4.42,-2.603 2.646,0.053 0.474,2.323 0.096,2.718 -0.714,2.672 -0.963,2.138 c -1.254,-2.704 -2.848,-5.454 -3.701,-8.312 -0.186,-0.624 0.638,-0.886 0.986,-0.427 0.165,-0.254 0.434,-0.443 0.834,-0.446 2.597,-0.019 5.198,0.059 7.795,0.097 0.814,0.011 1.245,0.859 0.891,1.553" />
      </g>
      <g
         transform="translate(131.6857,146.1139)"
         id="g248">
        <path
           inkscape:connector-curvature="0"
           id="path250"
           style="fill:#1c1c1b;fill-opacity:1;fill-rule:nonzero;stroke:none"
           d="M 0,0 C -1.172,0.717 -2.947,0.444 -3.559,-0.825 -4.212,-1.592 -4.2,-2.894 -3.681,-3.748 -2.806,-5.192 -0.906,-5.285 0.278,-4.161 1.511,-2.99 1.521,-0.931 0,0" />
      </g>
      <g
         transform="translate(139.4476,146.3759)"
         id="g252">
        <path
           inkscape:connector-curvature="0"
           id="path254"
           style="fill:#1c1c1b;fill-opacity:1;fill-rule:nonzero;stroke:none"
           d="m 0,0 c 1.224,-1.551 2.313,-3.157 3.254,-4.885 -1.947,10e-4 -3.895,0.004 -5.84,-0.04 C -1.641,-3.342 -0.827,-1.646 0,0 M 5.842,-5.397 C 4.42,-2.603 2.646,0.053 0.474,2.323 0.096,2.718 -0.714,2.672 -0.963,2.138 c -1.254,-2.704 -2.848,-5.454 -3.701,-8.312 -0.186,-0.624 0.638,-0.886 0.986,-0.427 0.165,-0.254 0.434,-0.443 0.834,-0.446 2.597,-0.019 5.198,0.059 7.795,0.097 0.814,0.011 1.245,0.859 0.891,1.553" />
      </g>
      <g
         transform="translate(151.3631,146.1139)"
         id="g256">
        <path
           inkscape:connector-curvature="0"
           id="path258"
           style="fill:#1c1c1b;fill-opacity:1;fill-rule:nonzero;stroke:none"
           d="M 0,0 C -1.172,0.717 -2.947,0.444 -3.559,-0.825 -4.212,-1.592 -4.2,-2.894 -3.681,-3.748 -2.806,-5.192 -0.906,-5.285 0.278,-4.161 1.511,-2.99 1.521,-0.931 0,0" />
      </g>
      <g
         transform="translate(159.1249,146.3759)"
         id="g260">
        <path
           inkscape:connector-curvature="0"
           id="path262"
           style="fill:#1c1c1b;fill-opacity:1;fill-rule:nonzero;stroke:none"
           d="m 0,0 c 1.224,-1.551 2.313,-3.157 3.254,-4.885 -1.947,10e-4 -3.895,0.004 -5.84,-0.04 C -1.641,-3.342 -0.827,-1.646 0,0 M 5.842,-5.397 C 4.42,-2.603 2.646,0.053 0.474,2.323 0.096,2.718 -0.714,2.672 -0.963,2.138 c -1.254,-2.704 -2.848,-5.454 -3.701,-8.312 -0.186,-0.624 0.638,-0.886 0.986,-0.427 0.165,-0.254 0.434,-0.443 0.834,-0.446 2.597,-0.019 5.198,0.059 7.795,0.097 0.814,0.011 1.245,0.859 0.891,1.553" />
      </g>
      <g
         transform="translate(172.2695,146.1139)"
         id="g264">
        <path
           inkscape:connector-curvature="0"
           id="path266"
           style="fill:#1c1c1b;fill-opacity:1;fill-rule:nonzero;stroke:none"
           d="M 0,0 C -1.172,0.717 -2.947,0.444 -3.559,-0.825 -4.212,-1.592 -4.2,-2.894 -3.681,-3.748 -2.806,-5.192 -0.906,-5.285 0.278,-4.161 1.511,-2.99 1.521,-0.931 0,0" />
      </g>
      <g
         transform="translate(180.0314,146.3759)"
         id="g268">
        <path
           inkscape:connector-curvature="0"
           id="path270"
           style="fill:#1c1c1b;fill-opacity:1;fill-rule:nonzero;stroke:none"
           d="m 0,0 c 1.224,-1.551 2.313,-3.157 3.254,-4.885 -1.947,10e-4 -3.895,0.004 -5.84,-0.04 C -1.641,-3.342 -0.827,-1.646 0,0 M 5.842,-5.397 C 4.42,-2.603 2.646,0.053 0.474,2.323 0.096,2.718 -0.714,2.672 -0.963,2.138 c -1.254,-2.704 -2.848,-5.454 -3.701,-8.312 -0.186,-0.624 0.638,-0.886 0.986,-0.427 0.165,-0.254 0.434,-0.443 0.834,-0.446 2.597,-0.019 5.198,0.059 7.795,0.097 0.814,0.011 1.245,0.859 0.891,1.553" />
      </g>
      <g
         transform="translate(192.2195,146.1139)"
         id="g272">
        <path
           inkscape:connector-curvature="0"
           id="path274"
           style="fill:#1c1c1b;fill-opacity:1;fill-rule:nonzero;stroke:none"
           d="M 0,0 C -1.172,0.717 -2.947,0.444 -3.559,-0.825 -4.212,-1.592 -4.2,-2.894 -3.681,-3.748 -2.806,-5.192 -0.906,-5.285 0.278,-4.161 1.511,-2.99 1.521,-0.931 0,0" />
      </g>
      <g
         transform="translate(199.9813,146.3759)"
         id="g276">
        <path
           inkscape:connector-curvature="0"
           id="path278"
           style="fill:#1c1c1b;fill-opacity:1;fill-rule:nonzero;stroke:none"
           d="m 0,0 c 1.224,-1.551 2.313,-3.157 3.254,-4.885 -1.947,10e-4 -3.895,0.004 -5.84,-0.04 C -1.641,-3.342 -0.827,-1.646 0,0 M 5.842,-5.397 C 4.42,-2.603 2.646,0.053 0.474,2.323 0.096,2.718 -0.714,2.672 -0.963,2.138 c -1.254,-2.704 -2.848,-5.454 -3.701,-8.312 -0.186,-0.624 0.638,-0.886 0.986,-0.427 0.165,-0.254 0.434,-0.443 0.834,-0.446 2.597,-0.019 5.198,0.059 7.795,0.097 0.814,0.011 1.245,0.859 0.891,1.553" />
      </g>
      <g
         transform="translate(213.126,146.1139)"
         id="g280">
        <path
           inkscape:connector-curvature="0"
           id="path282"
           style="fill:#1c1c1b;fill-opacity:1;fill-rule:nonzero;stroke:none"
           d="M 0,0 C -1.172,0.717 -2.947,0.444 -3.559,-0.825 -4.212,-1.592 -4.2,-2.894 -3.681,-3.748 -2.806,-5.192 -0.906,-5.285 0.278,-4.161 1.511,-2.99 1.521,-0.931 0,0" />
      </g>
      <g
         transform="translate(220.8878,146.3759)"
         id="g284">
        <path
           inkscape:connector-curvature="0"
           id="path286"
           style="fill:#1c1c1b;fill-opacity:1;fill-rule:nonzero;stroke:none"
           d="m 0,0 c 1.224,-1.551 2.313,-3.157 3.254,-4.885 -1.947,10e-4 -3.895,0.004 -5.84,-0.04 C -1.641,-3.342 -0.827,-1.646 0,0 M 5.842,-5.397 C 4.42,-2.603 2.646,0.053 0.474,2.323 0.096,2.718 -0.714,2.672 -0.963,2.138 c -1.254,-2.704 -2.848,-5.454 -3.701,-8.312 -0.186,-0.624 0.638,-0.886 0.986,-0.427 0.165,-0.254 0.434,-0.443 0.834,-0.446 2.597,-0.019 5.198,0.059 7.795,0.097 0.814,0.011 1.245,0.859 0.891,1.553" />
      </g>
    </g>
  </g>
</svg>
