<?xml version="1.0" encoding="UTF-8" standalone="no"?>
<!-- Created with Inkscape (http://www.inkscape.org/) -->

<svg
   xmlns:dc="http://purl.org/dc/elements/1.1/"
   xmlns:cc="http://creativecommons.org/ns#"
   xmlns:rdf="http://www.w3.org/1999/02/22-rdf-syntax-ns#"
   xmlns:svg="http://www.w3.org/2000/svg"
   xmlns="http://www.w3.org/2000/svg"
   xmlns:sodipodi="http://sodipodi.sourceforge.net/DTD/sodipodi-0.dtd"
   xmlns:inkscape="http://www.inkscape.org/namespaces/inkscape"
   width="58.919998mm"
   height="9.2919998mm"
   viewBox="0 0 58.919997 9.2919996"
   version="1.1"
   id="svg1413"
   inkscape:version="0.92.3 (2405546, 2018-03-11)"
   sodipodi:docname="sep_024.svg">
  <defs
     id="defs1407" />
  <sodipodi:namedview
     id="base"
     pagecolor="#ffffff"
     bordercolor="#666666"
     borderopacity="1.0"
     inkscape:pageopacity="0.0"
     inkscape:pageshadow="2"
     inkscape:zoom="1.979899"
     inkscape:cx="141.64777"
     inkscape:cy="-0.53151426"
     inkscape:document-units="mm"
     inkscape:current-layer="layer1"
     showgrid="false"
     inkscape:window-width="1366"
     inkscape:window-height="705"
     inkscape:window-x="-8"
     inkscape:window-y="-8"
     inkscape:window-maximized="1" />
  <metadata
     id="metadata1410">
    <rdf:RDF>
      <cc:Work
         rdf:about="">
        <dc:format>image/svg+xml</dc:format>
        <dc:type
           rdf:resource="http://purl.org/dc/dcmitype/StillImage" />
        <dc:title></dc:title>
      </cc:Work>
    </rdf:RDF>
  </metadata>
  <g
     inkscape:label="Layer 1"
     inkscape:groupmode="layer"
     id="layer1"
     transform="translate(0,-287.708)">
    <g
       transform="matrix(0.35277777,0,0,-0.35277777,-13.031434,381.02302)"
       id="g1815">
      <g
         transform="translate(152.2222,258.3882)"
         id="g38">
        <path
           inkscape:connector-curvature="0"
           id="path40"
           style="fill:#1d262d;fill-opacity:1;fill-rule:nonzero;stroke:none"
           d="M 0,0 C -1.334,-1.123 -2.51,-2.374 -3.207,-3.998 -1.755,-2.974 -0.592,-1.718 0,0 m 16.36,-2.07 c -1.946,-0.892 -3.715,-1.993 -5.305,-3.798 2.606,0.948 4.375,2.209 5.305,3.798 m 16.792,-8.723 c 1.099,-1.155 5.06,-2.643 6.63,-2.497 -1.884,1.75 -4.214,2.133 -6.63,2.497 m 4.497,8.123 C 35.282,-3.82 33,-6.51 32.787,-8.621 c 2.035,1.749 3.619,3.712 4.862,5.951 M -10.14,1.493 c -2.263,-1.509 -3.965,-3.472 -4.768,-6.13 2.099,1.632 3.679,3.677 4.768,6.13 m 32.643,-8.757 c 2.108,1.708 3.66,3.815 4.624,6.344 -2.412,-1.489 -3.627,-3.838 -4.624,-6.344 m 8.294,-7.834 c -2.071,2.94 -5.117,3.455 -7.995,4.288 2.323,-1.883 4.73,-3.605 7.995,-4.288 m -35.968,0.433 c -2.769,2.408 -6.182,3.216 -9.631,3.936 2.706,-2.531 6.031,-3.565 9.631,-3.936 m 9.742,0.545 c -1.18,3.181 -5.253,5.289 -8.044,5.172 2.04,-2.618 4.9,-3.885 8.044,-5.172 m 4.942,4.575 c 0.519,-2.448 5.699,-5.926 8.555,-5.757 -2.346,2.707 -4.804,5.144 -8.555,5.757 m -24.94,2.151 c 1.485,0.113 2.851,0.203 4.215,0.323 1.368,0.121 2.738,0.214 4.11,0.182 0.585,-0.014 0.937,0.159 1.175,0.719 0.396,0.937 0.868,1.842 1.306,2.762 1.196,2.51 3.149,4.366 5.261,6.083 0.314,0.256 0.662,0.45 1.07,0.189 C 2.106,2.61 2.321,2.248 2.241,1.771 2.176,1.386 2.084,1.003 1.968,0.631 1.055,-2.293 -0.633,-4.61 -3.341,-6.127 -3.6,-6.272 -3.919,-6.369 -4.018,-6.7 c 0.076,-0.212 0.254,-0.173 0.398,-0.175 3.689,-0.034 7.363,-0.309 11.028,-0.703 0.531,-0.056 0.881,0.06 1.175,0.526 1.969,3.119 4.766,5.257 8.087,6.763 0.143,0.064 0.282,0.137 0.426,0.199 0.464,0.2 0.926,0.485 1.414,0.048 0.44,-0.395 0.577,-1.035 0.267,-1.739 -0.707,-1.607 -1.719,-2.983 -3.19,-3.986 -1.247,-0.849 -2.64,-1.36 -4.078,-1.771 -0.185,-0.052 -0.368,-0.112 -0.556,-0.17 0.171,-0.349 0.506,-0.258 0.761,-0.286 2.65,-0.292 5.3,-0.574 7.953,-0.833 0.934,-0.091 0.883,-0.038 1.214,0.88 1.227,3.405 2.827,6.561 6.028,8.585 0.1,0.063 0.195,0.133 0.296,0.194 0.431,0.255 0.847,0.641 1.388,0.261 0.522,-0.365 0.575,-0.901 0.472,-1.473 -0.139,-0.78 -0.468,-1.496 -0.794,-2.206 -1.165,-2.54 -2.748,-4.745 -5.167,-6.232 0.164,-0.423 0.484,-0.265 0.72,-0.277 2.234,-0.119 4.468,-0.085 6.701,0.029 0.984,0.05 1.018,0.062 1.289,1.015 0.98,3.456 3.471,5.59 6.392,7.344 0.669,0.403 1.287,0.028 1.396,-0.789 0.065,-0.488 -0.12,-0.933 -0.304,-1.362 -0.782,-1.819 -1.861,-3.442 -3.26,-4.85 -0.163,-0.163 -0.316,-0.336 -0.468,-0.51 -0.021,-0.023 -0.01,-0.073 -0.021,-0.169 2.491,0.425 4.893,1.098 7.244,1.971 0.382,0.142 0.517,0.353 0.563,0.767 0.25,2.233 1.745,3.156 3.788,2.378 1.822,-0.694 2.372,-3.392 0.95,-4.706 -0.72,-0.666 -1.589,-0.582 -2.444,-0.378 -0.495,0.118 -0.961,0.363 -1.337,0.713 -0.307,0.288 -0.59,0.295 -0.952,0.128 -2.507,-1.153 -5.167,-1.806 -7.878,-2.344 0.084,-0.314 0.354,-0.21 0.523,-0.286 0.177,-0.079 0.378,-0.103 0.565,-0.157 1.771,-0.521 3.322,-1.4 4.499,-2.847 0.39,-0.478 0.936,-1.049 0.568,-1.671 -0.385,-0.652 -1.127,-0.358 -1.723,-0.209 -1.291,0.323 -2.575,0.68 -3.815,1.173 -1.621,0.647 -3.075,1.552 -4.302,2.805 -0.328,0.336 -0.638,0.633 -1.194,0.616 -1.406,-0.042 -2.814,-0.008 -4.347,-0.004 0.3,-0.557 0.73,-0.578 1.061,-0.721 2.162,-0.933 3.809,-2.445 5.049,-4.424 0.104,-0.166 0.202,-0.338 0.272,-0.519 0.172,-0.445 -0.044,-0.669 -0.469,-0.735 -0.318,-0.05 -0.618,0.063 -0.921,0.141 -2.461,0.636 -4.713,1.705 -6.716,3.27 -1.112,0.868 -2.195,1.775 -3.266,2.693 -0.342,0.292 -0.673,0.477 -1.137,0.517 -2.108,0.178 -4.211,0.396 -6.332,0.601 -0.039,-0.379 0.29,-0.435 0.482,-0.565 2.277,-1.541 3.958,-3.668 5.681,-5.753 0.123,-0.15 0.224,-0.328 0.291,-0.509 0.248,-0.665 -0.015,-1.066 -0.687,-0.898 -3.65,0.911 -7.149,2.132 -9.677,5.157 -0.586,0.701 -1.011,1.497 -1.291,2.359 -0.137,0.419 -0.345,0.711 -0.784,0.762 -2.361,0.274 -4.731,0.382 -7.135,0.517 0.065,-0.345 0.277,-0.389 0.438,-0.467 2.552,-1.24 3.958,-3.485 5.174,-5.897 0.146,-0.288 0.259,-0.622 0.047,-0.89 -0.229,-0.29 -0.587,-0.191 -0.875,-0.068 -3.579,1.524 -7.204,2.997 -9.568,6.334 -0.592,0.835 -1.279,1.092 -2.275,1.064 -2.978,-0.083 -5.946,-0.253 -9.056,-0.581 0.444,-0.313 0.833,-0.332 1.206,-0.4 2.398,-0.437 4.732,-1.074 6.931,-2.16 1.574,-0.777 2.908,-1.844 4.031,-3.182 0.326,-0.39 0.751,-0.822 0.441,-1.349 -0.271,-0.46 -0.829,-0.367 -1.295,-0.3 -1.982,0.287 -3.927,0.728 -5.792,1.48 -1.019,0.411 -1.998,0.903 -2.963,1.425 -1.258,0.681 -2.369,1.555 -3.229,2.692 -0.419,0.552 -1.043,0.807 -1.497,1.29 -0.209,0.222 -0.524,0.116 -0.787,0.067 -3.633,-0.679 -7.008,-1.966 -9.958,-4.247 -0.528,-0.408 -1.052,-0.825 -1.426,-1.389 -0.164,-0.248 -0.313,-0.461 -0.65,-0.289 -0.338,0.172 -0.427,0.454 -0.303,0.789 0.209,0.562 0.584,1.016 1.002,1.436 1.657,1.665 3.621,2.862 5.779,3.754 1.563,0.644 3.18,1.132 4.848,1.382 0.923,0.138 1.478,0.558 1.817,1.401 0.439,1.089 0.949,2.15 1.399,3.236 0.907,2.187 2.305,3.999 4.156,5.459 0.459,0.362 0.959,0.687 1.479,0.952 0.943,0.481 1.717,-0.071 1.642,-1.149 -0.041,-0.599 -0.335,-1.119 -0.59,-1.649 -1.281,-2.664 -3.134,-4.863 -5.43,-6.704 -0.213,-0.171 -0.419,-0.351 -0.621,-0.536 -0.048,-0.044 -0.065,-0.123 -0.18,-0.353" />
      </g>
      <g
         transform="translate(91.8906,254.5459)"
         id="g42">
        <path
           inkscape:connector-curvature="0"
           id="path44"
           style="fill:#1d262d;fill-opacity:1;fill-rule:nonzero;stroke:none"
           d="M 0,0 C -0.688,1.627 -1.856,2.884 -3.185,4.015 -2.602,2.293 -1.446,1.032 0,0 m -14.271,-1.793 c -1.581,1.813 -3.343,2.923 -5.285,3.827 0.922,-1.595 2.683,-2.866 5.285,-3.827 m -28.767,-7.266 c 1.569,-0.154 5.538,1.313 6.642,2.46 -2.417,-0.349 -4.749,-0.72 -6.642,-2.46 m 7.02,4.631 c -0.202,2.112 -2.469,4.814 -4.83,5.978 1.232,-2.246 2.805,-4.217 4.83,-5.978 m 47.716,3.725 C 10.91,1.959 9.219,3.932 6.963,5.452 8.04,2.994 9.607,0.94 11.698,-0.703 m -42.014,3.945 c 0.95,-2.534 2.491,-4.649 4.588,-6.368 -0.981,2.511 -2.185,4.866 -4.588,6.368 m 4.271,-9.913 c -2.882,-0.818 -5.931,-1.316 -8.018,-4.245 3.269,0.666 5.686,2.375 8.018,4.245 m 37.604,-0.124 c -3.453,-0.7 -6.87,-1.491 -9.652,-3.882 3.601,0.35 6.932,1.365 9.652,3.882 M 0.24,-4.952 c -2.791,0.133 -6.875,-1.953 -8.073,-5.128 3.152,1.269 6.019,2.52 8.073,5.128 m -21.575,-6.237 c 2.854,-0.184 8.053,3.266 8.585,5.71 -3.753,-0.591 -6.225,-3.015 -8.585,-5.71 m 33.358,8.081 c -0.2,0.185 -0.405,0.366 -0.617,0.539 C 9.119,-0.716 7.279,1.493 6.013,4.164 5.761,4.696 5.469,5.217 5.431,5.816 5.362,6.895 6.139,7.442 7.08,6.956 7.598,6.688 8.096,6.361 8.553,5.997 c 1.843,-1.471 3.231,-3.29 4.127,-5.482 0.444,-1.088 0.948,-2.152 1.381,-3.244 0.335,-0.845 0.888,-1.268 1.809,-1.411 1.667,-0.259 3.282,-0.755 4.841,-1.409 2.154,-0.902 4.11,-2.11 5.759,-3.785 0.415,-0.422 0.787,-0.878 0.993,-1.44 0.123,-0.336 0.032,-0.618 -0.306,-0.789 -0.338,-0.169 -0.487,0.045 -0.649,0.293 -0.371,0.567 -0.893,0.986 -1.419,1.397 -2.937,2.297 -6.305,3.603 -9.934,4.301 -0.263,0.051 -0.578,0.158 -0.787,-0.063 -0.457,-0.48 -1.083,-0.731 -1.505,-1.282 -0.866,-1.132 -1.981,-2 -3.243,-2.674 -0.968,-0.517 -1.95,-1.004 -2.971,-1.409 -1.869,-0.742 -3.816,-1.172 -5.8,-1.448 -0.466,-0.065 -1.025,-0.156 -1.294,0.306 -0.307,0.53 0.121,0.959 0.449,1.347 1.13,1.333 2.47,2.392 4.048,3.16 2.205,1.074 4.542,1.698 6.943,2.123 0.374,0.066 0.762,0.083 1.208,0.393 -3.108,0.345 -6.075,0.531 -9.052,0.63 -0.997,0.033 -1.685,-0.219 -2.281,-1.051 -2.383,-3.323 -6.016,-4.778 -9.602,-6.282 -0.289,-0.121 -0.648,-0.219 -0.875,0.072 -0.211,0.27 -0.096,0.603 0.051,0.891 1.229,2.405 2.647,4.642 5.207,5.868 0.162,0.077 0.373,0.12 0.44,0.465 -2.404,-0.122 -4.776,-0.217 -7.138,-0.478 -0.44,-0.049 -0.649,-0.34 -0.788,-0.758 -0.285,-0.86 -0.714,-1.655 -1.303,-2.352 -2.545,-3.012 -6.05,-4.214 -9.705,-5.106 -0.673,-0.164 -0.935,0.24 -0.683,0.903 0.069,0.18 0.17,0.359 0.294,0.507 1.734,2.077 3.427,4.194 5.712,5.723 0.193,0.128 0.522,0.183 0.485,0.562 -2.122,-0.194 -4.227,-0.4 -6.335,-0.568 -0.464,-0.036 -0.796,-0.219 -1.139,-0.51 -1.077,-0.911 -2.164,-1.812 -3.281,-2.674 -2.011,-1.554 -4.27,-2.612 -6.733,-3.234 -0.304,-0.077 -0.604,-0.188 -0.923,-0.136 -0.425,0.069 -0.638,0.293 -0.465,0.737 0.071,0.181 0.171,0.352 0.275,0.517 1.251,1.973 2.906,3.476 5.073,4.398 0.332,0.141 0.762,0.16 1.065,0.715 -1.533,0.005 -2.941,-0.022 -4.347,0.027 -0.556,0.02 -0.867,-0.275 -1.197,-0.61 -1.234,-1.246 -2.692,-2.143 -4.317,-2.781 -1.243,-0.487 -2.529,-0.835 -3.822,-1.152 -0.597,-0.145 -1.34,-0.436 -1.722,0.218 -0.364,0.624 0.185,1.191 0.577,1.669 1.185,1.44 2.741,2.31 4.514,2.821 0.188,0.055 0.39,0.076 0.566,0.154 0.169,0.076 0.44,-0.031 0.525,0.284 -2.708,0.552 -5.364,1.219 -7.864,2.387 -0.362,0.168 -0.645,0.163 -0.954,-0.123 -0.378,-0.348 -0.844,-0.591 -1.34,-0.706 -0.856,-0.2 -1.725,-0.279 -2.442,0.391 -1.415,1.322 -0.85,4.016 0.975,4.701 2.047,0.768 3.537,-0.164 3.775,-2.398 0.044,-0.415 0.178,-0.626 0.559,-0.77 2.346,-0.887 4.745,-1.573 7.233,-2.011 -0.01,0.096 0.001,0.146 -0.019,0.17 -0.152,0.174 -0.305,0.348 -0.466,0.512 -1.391,1.415 -2.462,3.044 -3.234,4.868 -0.182,0.43 -0.363,0.875 -0.296,1.363 0.113,0.816 0.733,1.188 1.401,0.782 2.911,-1.771 5.39,-3.918 6.351,-7.379 0.266,-0.955 0.3,-0.967 1.283,-1.022 2.233,-0.126 4.467,-0.172 6.702,-0.066 0.235,0.012 0.555,-0.149 0.721,0.273 -2.412,1.501 -3.983,3.714 -5.133,6.26 -0.322,0.712 -0.647,1.43 -0.782,2.21 -0.1,0.573 -0.044,1.108 0.48,1.472 0.543,0.377 0.957,-0.012 1.387,-0.27 0.1,-0.06 0.195,-0.131 0.294,-0.195 3.19,-2.042 4.773,-5.206 5.982,-8.618 0.326,-0.92 0.275,-0.972 1.209,-0.886 2.654,0.244 5.306,0.512 7.957,0.79 0.255,0.027 0.59,-0.066 0.763,0.282 -0.188,0.058 -0.371,0.119 -0.556,0.173 -1.435,0.418 -2.826,0.937 -4.068,1.793 -1.465,1.011 -2.47,2.392 -3.168,4.003 -0.306,0.706 -0.165,1.346 0.276,1.737 0.49,0.435 0.951,0.147 1.415,-0.055 0.143,-0.063 0.281,-0.136 0.424,-0.202 3.314,-1.524 6.098,-3.677 8.05,-6.806 0.292,-0.468 0.641,-0.586 1.172,-0.532 3.668,0.373 7.343,0.628 11.032,0.643 0.144,10e-4 0.322,-0.039 0.398,0.172 -0.096,0.332 -0.415,0.43 -0.673,0.577 -2.7,1.531 -4.375,3.858 -5.272,6.786 -0.115,0.373 -0.204,0.757 -0.267,1.142 -0.077,0.477 0.14,0.839 0.537,1.09 0.41,0.259 0.756,0.063 1.069,-0.195 2.102,-1.728 4.045,-3.595 5.227,-6.111 0.433,-0.923 0.9,-1.831 1.292,-2.77 0.234,-0.561 0.586,-0.735 1.17,-0.725 1.373,0.025 2.743,-0.075 4.11,-0.204 1.363,-0.128 2.729,-0.225 4.214,-0.346 -0.115,0.231 -0.131,0.31 -0.18,0.355" />
      </g>
    </g>
  </g>
</svg>
