<?xml version="1.0" encoding="UTF-8" standalone="no"?>
<!-- Created with Inkscape (http://www.inkscape.org/) -->

<svg
   xmlns:dc="http://purl.org/dc/elements/1.1/"
   xmlns:cc="http://creativecommons.org/ns#"
   xmlns:rdf="http://www.w3.org/1999/02/22-rdf-syntax-ns#"
   xmlns:svg="http://www.w3.org/2000/svg"
   xmlns="http://www.w3.org/2000/svg"
   xmlns:sodipodi="http://sodipodi.sourceforge.net/DTD/sodipodi-0.dtd"
   xmlns:inkscape="http://www.inkscape.org/namespaces/inkscape"
   width="72.344002mm"
   height="6.3210001mm"
   viewBox="0 0 72.344002 6.3210001"
   version="1.1"
   id="svg1413"
   inkscape:version="0.92.3 (2405546, 2018-03-11)"
   sodipodi:docname="sep_008.svg">
  <defs
     id="defs1407" />
  <sodipodi:namedview
     id="base"
     pagecolor="#ffffff"
     bordercolor="#666666"
     borderopacity="1.0"
     inkscape:pageopacity="0.0"
     inkscape:pageshadow="2"
     inkscape:zoom="1.979899"
     inkscape:cx="141.64777"
     inkscape:cy="-0.53151426"
     inkscape:document-units="mm"
     inkscape:current-layer="layer1"
     showgrid="false"
     inkscape:window-width="1366"
     inkscape:window-height="705"
     inkscape:window-x="-8"
     inkscape:window-y="-8"
     inkscape:window-maximized="1" />
  <metadata
     id="metadata1410">
    <rdf:RDF>
      <cc:Work
         rdf:about="">
        <dc:format>image/svg+xml</dc:format>
        <dc:type
           rdf:resource="http://purl.org/dc/dcmitype/StillImage" />
        <dc:title></dc:title>
      </cc:Work>
    </rdf:RDF>
  </metadata>
  <g
     inkscape:label="Layer 1"
     inkscape:groupmode="layer"
     id="layer1"
     transform="translate(0,-290.679)">
    <g
       id="g196"
       transform="matrix(0.35277777,0,0,-0.35277777,71.209805,293.4422)">
      <path
         d="m 0,0 c -0.012,0.036 -0.016,0.073 -0.029,0.108 -0.598,1.56 -2.416,2.344 -3.874,1.39 -0.896,-0.586 -1.383,-1.638 -1.316,-2.656 -15.471,0.77 -31.21,-0.082 -46.685,-0.158 -14.719,-0.072 -29.438,-0.151 -44.158,-0.229 1.273,1.953 1.728,4.033 -0.17,5.705 -1.287,1.133 -3.251,1.069 -4.617,0.102 -1.177,-0.834 -1.676,-2.154 -1.717,-3.516 -0.56,1.149 -1.434,2.158 -2.518,2.808 -1.477,0.886 -3.626,1.005 -4.629,-0.644 -0.868,-1.427 -0.473,-3.014 0.469,-4.52 -13.095,-0.067 -26.19,-0.134 -39.285,-0.185 -14.926,-0.058 -29.978,-0.587 -44.882,0.559 -0.125,0.862 -0.656,1.671 -1.403,2.133 -2.634,1.631 -5.655,-2.078 -3.434,-4.276 0.16,-0.158 0.344,-0.287 0.536,-0.401 0.391,-0.281 0.864,-0.456 1.383,-0.479 1.192,-0.054 2.39,0.667 2.806,1.799 0.029,0.079 0.041,0.16 0.062,0.24 14.19,-1.788 28.676,-1.024 42.94,-0.976 14.128,0.047 28.256,0.079 42.384,0.107 1.506,-1.736 3.479,-3.23 4.653,-4.032 0.319,-0.218 0.669,-0.139 0.932,0.069 0.352,-0.203 0.816,-0.222 1.229,0.126 1,0.843 2.708,2.25 4.104,3.863 14.773,0.028 29.546,0.054 44.319,0.089 16.03,0.037 32.357,-0.749 48.368,0.217 0.965,-1.035 2.682,-1.267 3.863,-0.466 C 0.537,-2.406 0.62,-1.051 0,0"
         style="fill:#1c1c1b;fill-opacity:1;fill-rule:nonzero;stroke:none"
         id="path198"
         inkscape:connector-curvature="0" />
    </g>
  </g>
</svg>
